main.js -> Router.js -> /routes/user.js -> Objects/User.js -> objects/db-mappings/user.sqlite3.js -> Base de données


{
    "id":1,
    "mail":"utilisateur1@gmail.com",
    "password":"8cb2237d0679ca88db6464eac60da96345513964",
    "nom":"NomUtilisateur1",
    "prenom":"PrenomUtilisateur1",
    "createdAt":"2018-02-14T10:20:05.000Z",
    "updatedAt":"2018-02-14T10:20:05.000Z"
}
